{
    "id": "boilerplate",
    "name": "PS Efficiencies Boilerplate - For Mont Blanc",
    "dependencies": ["mont-blanc-base","ss-categories"],
    "folders": {
        "modules": "Modules",
        "suitecommerceModules": "Modules/suitecommerce",
        "thirdPartyModules": "Modules/third_parties",
        "distribution": "bin/LocalDistribution",
        "deploy": "bin/DeployDistribution",
        "release": "bin/ReleaseDistribution"
    },
    "endpoint": true,
    "modules": {
        "efficiencies/QuickOrder": "dev",
        "efficiencies/AdvancedItemImages": "1.0.0",
        "efficiencies/Backbone.PluginInstaller": "1.0.0",
        "efficiencies/Backbone.View.PostContextHook": "1.0.0",
        "efficiencies/CMSadapterFixes": "1.1.0",
        "efficiencies/CMSRefreshLinks": "1.0.0",
        "efficiencies/EFCore": "1.1.0",
        "efficiencies/EnvironmentFiles": "2.0.0",
        "efficiencies/ItemDetails.View.LinkToReviews": "1.0.0",
        "efficiencies/ItemDetails.View.SelectSingleOption": "1.0.0",
        "efficiencies/ItemDetails.View.VideoOnGallery": "1.1.0",
        "efficiencies/ResolveAssetUrl": "1.0.0",
        "efficiencies/ShoppingStarterFixes": "1.1.0",
        "efficiencies/SSPFiles": "2.0.0",
        "efficiencies/StyleFixes": "2.0.0",
        "site/ApplicationConfigurations": "dev",
        "third_parties_efficiencies/jQuery-fitvids": "1.1"

    },
    "tasksConfig": {
        "local": {
            "https": {
                "port": 7778,
                "key": "SupportScripts/local-https/key.pem",
                "cert": "SupportScripts/local-https/cert.pem"
            }
        },
        "javascript": [
            {
                "entryPoint": "SC.Shopping.Starter",
                "dependencies": [
                    {"prepend": "Site.Shopping.Configuration"},
                    {"add": "Backbone.View.PostContextHook", "after": "Backbone.View.Plugins"},
                    {"add": "Backbone.PluginInstaller", "after": "Backbone.View.PostContextHook"},
                    "CMSRefreshLinks",
                    "ItemDetails.View.LinkToReviews",
                    "ItemDetails.View.SelectSingleOption",
                    "ItemDetails.View.VideoOnGallery",
                    "ResolveAssetUrlHandlebarsAddOn",
                    "AdvancedItemImages"
                ]
            },
            {
                "entryPoint": "SC.MyAccount.Starter",
                "dependencies": [
                    {"prepend": "Site.MyAccount.Configuration"},
                    {"add": "Backbone.View.PostContextHook", "after": "Backbone.View.Plugins"},
                    {"add": "Backbone.PluginInstaller", "after": "Backbone.View.PostContextHook"},
                    "ResolveAssetUrlHandlebarsAddOn",
                    "AdvancedItemImages"
                ]
            },
            {
                "entryPoint": "SC.Checkout.Starter",
                "dependencies": [
                    {"prepend": "Site.Checkout.Configuration"},
                    {"add": "Backbone.View.PostContextHook", "after": "Backbone.View.Plugins"},
                    {"add": "Backbone.PluginInstaller", "after": "Backbone.View.PostContextHook"},
                    "ResolveAssetUrlHandlebarsAddOn",
                    "AdvancedItemImages"
                ]
            }
        ],
        "ssp-libraries": {
            "dependencies": [
                "CMSadapterFixes",
              "QuickOrder.Model",
              "LiveOrder.Model.MultiLine"
            ]
        },
        "sass": {
            "applications": [
                {
                    "name": "Shopping",
                    "dependencies": [
                        "StyleFixes",
                      "QuickOrder"
                    ]
                },
                {
                    "name": "MyAccount",
                    "dependencies": [
                        {
                            "module": "StyleFixes",
                            "exclude": [
                                "facets_item_cell_fixes"
                            ]
                        }
                    ]
                },
                {
                    "name": "Checkout",
                    "dependencies": [
                        {
                            "module": "StyleFixes",
                            "exclude": [
                                "facets_item_cell_fixes"
                            ]
                        }
                    ]
                }
            ]
        },
        "efficiencies-release": {
            "extras": [
                "bin/",
                "gulp/distros/*",
                "gulp/ns-deploy/fs.js",
                "gulp/ns-deploy/net.js",
                "gulp/tasks/clean.js",
                "gulp/tasks/watch.js",
                "gulp/tasks/local.js",
                "gulp/tasks/distros.js",
                "gulp/tasks/hosting-root-files.js",
                "gulp/tasks/backend-suitescript.js",
                "HostingRootFiles/*",
                "gulp/package-manager/index.js",
                "package.json",
                ".svnignore",
                "svnignore.sh",
                "SupportScripts/*",
                "Modules/efficiencies/.eslintrc",
                "Modules/efficiencies/.jshintrc"
            ]
        }
    }
}
