{
  "id": "ss-theme-traleika",
  "name": "SuiteSolution Theme Traleika - Mont Blanc",
  "dependencies": ["mont-blanc-base"],
  "modules": {
    "themes/traleika/Theme_BaseSassStyles": "1.1",
    "themes/traleika/Theme_Cart": "1.0",
    "themes/traleika/Theme_Facets": "1.1",
    "themes/traleika/Theme_Footer": "1.1",
    "themes/traleika/Theme_GlobalViews": "1.0",
    "themes/traleika/Theme_Header": "1.1",
    "themes/traleika/Theme_Home": "1.1",
    "themes/traleika/Theme_ItemDetails": "1.1",
    "themes/traleika/Theme_ItemViews": "1.1",
    "themes/traleika/Theme_ListHeader": "1.0",
    "themes/traleika/Theme_ShoppingApplication": "1.1",
    "themes/traleika/Theme_CheckoutApplication": "1.0"
  },
  "tasksConfig": {
    "sass": {
      "applications": [
        {
          "name": "Shopping",
          "dependencies": [
            "Theme_ShoppingApplication",
            {
              "module": "Theme_BaseSassStyles",
              "include": [
                "qs-Traleika-reset"
              ]
            },
            "Theme_Cart",
            "Theme_Facets",
            "Theme_Footer",
            "Theme_GlobalViews",
            "Theme_Header",
            "Theme_Home",
            "Theme_ItemDetails",
            "Theme_ItemViews",
            "Theme_ListHeader"
          ]
        },
        {
          "name": "MyAccount",
          "dependencies": [
            {
              "module": "Theme_BaseSassStyles",
              "include": [
                "qs-Traleika-reset"
              ]
            },
            "Theme_Facets",
            "Theme_Footer",
            "Theme_GlobalViews",
            "Theme_Header",
            "Theme_ListHeader"
          ]
        },
        {
          "name": "Checkout",
          "dependencies": [
            {
              "module": "Header",
              "include": [
                "header",
                "header-menu",
                "header-sidebar",
                "header-menu-myaccount",
                "header-simplified",
                "header-mini-cart",
                "header-mini-cart-item-cell",
                "header-profile",
                "header-logo"
              ]
            },
            "Footer",
            "Theme_CheckoutApplication",
            {
              "module": "Theme_BaseSassStyles",
              "include": [
                "qs-Traleika-reset"
              ]
            },
            "Theme_Facets",
            "Theme_Footer",
            "Theme_GlobalViews",
            "Theme_Header",
            "Theme_ListHeader"
          ]
        }
      ]
    }
  }
}




